{
	"info": {
		"_postman_id": "f5ed5d8b-37f2-4e60-83ae-095ec4ad06ad",
		"name": "CseIntegration",
		"schema": "https://schema.getpostman.com/json/collection/v2.1.0/collection.json"
	},
	"item": [
		{
			"name": "Main queries",
			"item": [
				{
					"name": "Order Create",
					"request": {
						"method": "POST",
						"header": [],
						"body": {
							"mode": "raw",
							"raw": ""
						},
						"url": {
							"raw": "{{base_url}}api/v1/order/create/{{mw_order_uuid}}",
							"host": [
								"{{base_url}}api"
							],
							"path": [
								"v1",
								"order",
								"create",
								"{{mw_order_uuid}}"
							]
						}
					},
					"response": []
				},
				{
					"name": "Order Get Info",
					"request": {
						"method": "GET",
						"header": [],
						"body": {
							"mode": "raw",
							"raw": ""
						},
						"url": {
							"raw": "{{base_url}}api/v1/order/info/{{cse_order_id}}",
							"host": [
								"{{base_url}}api"
							],
							"path": [
								"v1",
								"order",
								"info",
								"{{cse_order_id}}"
							]
						}
					},
					"response": []
				}
			]
		}
	],
	"event": [
		{
			"listen": "prerequest",
			"script": {
				"id": "bc5ea5a1-6c3b-49ff-9c3f-ebe655f6dcf0",
				"type": "text/javascript",
				"exec": [
					""
				]
			}
		},
		{
			"listen": "test",
			"script": {
				"id": "dd8fb5d0-b965-4278-9daa-077758ef033f",
				"type": "text/javascript",
				"exec": [
					""
				]
			}
		}
	],
	"variable": [
		{
			"id": "844fe044-fdee-4bd9-8e00-c21887282077",
			"key": "base_url",
			"value": "http://cse-integration.loc/",
			"type": "string"
		},
		{
			"id": "6e7a433f-c8b8-4157-95d9-bfcb8bf0b18f",
			"key": "mw_order_uuid",
			"value": "5906d6fa-5369-11ec-0a80-08c8003929a9",
			"type": "string"
		},
		{
			"id": "a35a0192-d9a1-4b08-ab6a-188e802f027a",
			"key": "cse_order_id",
			"value": "666-0000014804",
			"type": "string"
		}
	]
}