{
    "name": "Cse",
    "alias": "cse",
    "description": "",
    "keywords": [],
    "priority": 0,
    "providers": [
        "Modules\\Cse\\Providers\\CseServiceProvider"
    ],
    "aliases": {},
    "files": [],
    "requires": []
}
